@startuml CRUDing
left to right direction
package docker-compose {
  [prismagraphql/prisma] as prismaContainer
  database "postgres" as volume
  [postgres] -- volume
  prismaContainer - [postgres]
}
package "Node Server" as NodeServer {
  [firebase-admin] - Firebase
  file datamodel.graphql
  [graphql-shield]
  [Nexus-Prisma]
  [Prisma] -- prismaContainer
}
cloud Firebase {
  [Auth]
}
package React-admin {
  (ra-data-opencrud) -- NodeServer : Apollo
  (CRUD resources)
  (FirebaseUI) - Auth
}
@enduml
